…
    ``` r
    # get a list of files with "Foreign Connected PAC" in their names
    list_of_files <- dir_ls(path = "data", regexp = "Foreign Connected PAC")

    # read all files and row bind them
    # keeping track of the file name in a new column called year
    pac <- read_csv(list_of_files, id = "year")
    ```

    The ultimate goal of this exercise is to recreate yet another plot. But there is a nontrivial amount of data wrangling and tidying that needs to happen before you can do that. Below are the steps you should follow so that you can obtain the necessary interim objects we will be looking for as we review your work.

    -   First, clean the names of the variables in the dataset with a new function from the [**janitor**](http://sfirke.github.io/janitor/) package: [`clean_names()`](http://sfirke.github.io/janitor/reference/clean_names.html). Then clean and transform the data such that you have something like the following at the end.

        ```         
        # A tibble: 2,394 × 6
            year pac_name_affiliate                  count…¹ paren…²  dems repubs
           <int> <chr>                               <chr>   <chr>   <dbl>  <dbl>
         1  2000 7-Eleven                            Japan   Ito-Yo…  1500   7000
         2  2000 ABB Group                           Switze… Asea B… 17000  28500
         3  2000 Accenture                           UK      Accent… 23000  52984
         4  2000 ACE INA                             UK      ACE Gr… 12500  26000
         5  2000 Acuson Corp (Siemens AG)            Germany Siemen…  2000      0
         6  2000 Adtranz (DaimlerChrysler)           Germany Daimle… 10000    500
         7  2000 AE Staley Manufacturing (Tate & Ly… UK      Tate &… 10000  14000
         8  2000 AEGON USA (AEGON NV)                Nether… Aegon … 10500  47750
         9  2000 AIM Management Group                UK      AMVESC… 10000  15000
        10  2000 Air Liquide America                 France  L'Air …     0      0
        # … with 2,384 more rows, and abbreviated variable names
        ```
…
