INFO 526 - Visualizing time series data II
…
2022 Tucson, AZ

tuc_2022 <- read_csv(
  here::here("data/tucson/ad_aqi_tracker_data-2022.csv"),
  na = c(".", "")
)

tuc_2022 <- tuc_2022 |>
  janitor::clean_names() |>
  mutate(date = mdy(date))

tuc_2022

# A tibble: 365 × 11
  date       aqi_value main_pollutant site_name site_id    source
  <date>         <dbl> <chr>          <chr>     <chr>      <chr> 
1 2022-01-01        40 PM2.5          GERONIMO  04-019-11… AQS   
2 2022-01-02        55 PM2.5          GERONIMO  04-019-11… AQS   
3 2022-01-03        55 PM2.5          GERONIMO  04-019-11… AQS   
# ℹ 362 more rows
# ℹ 5 more variables: x20_year_high_2000_2019 <dbl>,
#   x20_year_low_2000_2019 <dbl>,
#   x5_year_average_2015_2019 <dbl>, date_of_20_year_high <chr>,
#   date_of_20_year_low <chr>
…
When visualizing time series data, a somewhat common task is to calculate cumulatives over time and plot them

In our example we’ll calculate the number of days with “good” AQI (\(\le\) 50) and plot that value on the y-axis and the date on the x-axis

Calculating cumulatives

Step 1. Arrange your data

tuc_2022 |>
  select(date, aqi_value) |>
  filter(!is.na(aqi_value)) |>
  arrange(date)

# A tibble: 365 × 2
  date       aqi_value
  <date>         <dbl>
1 2022-01-01        40
2 2022-01-02        55
3 2022-01-03        55
4 2022-01-04        48
5 2022-01-05        50
# ℹ 360 more rows

Calculating cumulatives

Step 2. Identify good days

tuc_2022 |>
  select(date, aqi_value) |>
  filter(!is.na(aqi_value)) |>
  arrange(date) |>
  mutate(good_aqi = if_else(aqi_value <= 50, 1, 0))

# A tibble: 365 × 3
  date       aqi_value good_aqi
  <date>         <dbl>    <dbl>
1 2022-01-01        40        1
2 2022-01-02        55        0
3 2022-01-03        55        0
4 2022-01-04        48        1
5 2022-01-05        50        1
# ℹ 360 more rows

Calculating cumulatives

Step 3. Sum over time

tuc_2022 |>
  select(date, aqi_value) |>
  filter(!is.na(aqi_value)) |>
  arrange(date) |>
  mutate(
    good_aqi = if_else(aqi_value <= 50, 1, 0),
    cumsum_good_aqi = cumsum(good_aqi)
  )

# A tibble: 365 × 4
  date       aqi_value good_aqi cumsum_good_aqi
  <date>         <dbl>    <dbl>           <dbl>
1 2022-01-01        40        1               1
2 2022-01-02        55        0               1
3 2022-01-03        55        0               1
4 2022-01-04        48        1               2
5 2022-01-05        50        1               3
# ℹ 360 more rows
…
tuc <- read_csv(tuc_files, na = c(".", ""))

tuc <- tuc |>
  janitor::clean_names() |>
  mutate(
    date = mdy(date),
    good_aqi = if_else(aqi_value <= 50, 1, 0)
  ) |>
  filter(!is.na(aqi_value)) |>
  arrange(date) |>
  mutate(cumsum_good_aqi = cumsum(good_aqi), .after = aqi_value)

tuc

# A tibble: 2,392 × 13
  date       aqi_value cumsum_good_aqi main_pollutant site_name  
  <date>         <dbl>           <dbl> <chr>          <chr>      
1 2017-01-01        38               1 Ozone          SAGUARO PA…
2 2017-01-02        40               2 Ozone          SAGUARO PA…
3 2017-01-03        38               3 Ozone          SAGUARO PA…
4 2017-01-04        38               4 Ozone          SAGUARO PA…
5 2017-01-05        32               5 Ozone          SAGUARO PA…
# ℹ 2,387 more rows
# ℹ 8 more variables: site_id <chr>, source <chr>,
#   x20_year_high_2000_2019 <dbl>, x20_year_low_2000_2019 <dbl>,
#   x5_year_average_2015_2019 <dbl>, date_of_20_year_high <chr>,
#   date_of_20_year_low <chr>, good_aqi <dbl>
…
Coefficients:
(Intercept)         date  
  -10644.57         0.62  

Detrend

Step 2. Augment the data with model results (using broom::augment())

tuc_aug <- augment(m)

tuc_aug

# A tibble: 2,392 × 8
  cumsum_good_aqi date       .fitted .resid    .hat .sigma
            <dbl> <date>       <dbl>  <dbl>   <dbl>  <dbl>
1               1 2017-01-01 -0.574    1.57 0.00167   23.9
2               2 2017-01-02  0.0457   1.95 0.00167   23.9
3               3 2017-01-03  0.666    2.33 0.00167   23.9
4               4 2017-01-04  1.29     2.71 0.00166   23.9
5               5 2017-01-05  1.91     3.09 0.00166   23.9
# ℹ 2,387 more rows
# ℹ 2 more variables: .cooksd <dbl>, .std.resid <dbl>

Detrend

Step 3. Divide the observed value of cumsum_good_aqi by the respective value in the long-term trend (i.e., .fitted)

tuc_aug <- tuc_aug |>
  mutate(ratio = cumsum_good_aqi / .fitted, .after = .fitted)

tuc_aug

# A tibble: 2,392 × 9
  cumsum_good_aqi date       .fitted ratio .resid    .hat .sigma
            <dbl> <date>       <dbl> <dbl>  <dbl>   <dbl>  <dbl>
1               1 2017-01-01 -0.574  -1.74   1.57 0.00167   23.9
2               2 2017-01-02  0.0457 43.7    1.95 0.00167   23.9
3               3 2017-01-03  0.666   4.51   2.33 0.00167   23.9
4               4 2017-01-04  1.29    3.11   2.71 0.00166   23.9
5               5 2017-01-05  1.91    2.62   3.09 0.00166   23.9
# ℹ 2,387 more rows
# ℹ 2 more variables: .cooksd <dbl>, .std.resid <dbl>
…
sf <- read_csv(sf_files, na = c(".", ""))

sf <- sf |>
  janitor::clean_names() |>
  mutate(
    date = mdy(date),
    good_aqi = if_else(aqi_value <= 50, 1, 0)
  ) |>
  filter(!is.na(aqi_value)) |>
  arrange(date) |>
  mutate(cumsum_good_aqi = cumsum(good_aqi), .after = aqi_value)

sf

# A tibble: 2,557 × 13
  date       aqi_value cumsum_good_aqi main_pollutant site_name  
  <date>         <dbl>           <dbl> <chr>          <chr>      
1 2016-01-01        32               1 PM2.5          Durham Arm…
2 2016-01-02        37               2 PM2.5          Durham Arm…
3 2016-01-03        45               3 PM2.5          Durham Arm…
4 2016-01-04        33               4 PM2.5          Durham Arm…
5 2016-01-05        27               5 PM2.5          Durham Arm…
# ℹ 2,552 more rows
# ℹ 8 more variables: site_id <chr>, source <chr>,
#   x20_year_high_2000_2019 <dbl>, x20_year_low_2000_2019 <dbl>,
#   x5_year_average_2015_2019 <dbl>, date_of_20_year_high <chr>,
#   date_of_20_year_low <chr>, good_aqi <dbl>
…
